{
  "type": "object",
  "required" : [
    "name",
    "title",
    "status",
    "path",
    "dropdown_path"
  ],
  "properties" : {
    "name": { "type": "string" },
    "title": { "type": "string" },
    "groups": { "optional": true },
    "latest_statuses": {
      "type": "array",
      "items": { "$ref": "job/job.json" },
      "optional": true
    },
    "status": { "$ref": "status/ci_detailed_status.json" },
    "path": { "type": "string" },
    "dropdown_path": { "type": "string" }
  },
  "additionalProperties": false
}
